<?xml version="1.0" encoding="iso-8859-1"?>
<!-- Generator: Adobe Illustrator 19.1.0, SVG Export Plug-In . SVG Version: 6.00 Build 0)  -->
<svg xmlns="http://www.w3.org/2000/svg" xmlns:xlink="http://www.w3.org/1999/xlink" version="1.1" id="Capa_1" x="0px" y="0px" viewBox="0 0 399.14 399.14" style="enable-background:new 0 0 399.14 399.14;" xml:space="preserve" width="512px" height="512px">
<g>
	<circle cx="108.75" cy="72.98" r="60" fill="#FFFFFF"/>
	<path d="M192.389,202.238c-19.946-23.984-50.006-39.258-83.639-39.258C48.689,162.98,0,211.669,0,271.73h122.897L192.389,202.238z" fill="#FFFFFF"/>
	<path d="M300.376,136.676l38.661-38.661l60.104,60.104l-38.661,38.661L300.376,136.676z" fill="#FFFFFF"/>
	<path d="M110.998,386.16l68.464-19.986l-48.478-48.477L110.998,386.16z" fill="#FFFFFF"/>
	<path d="M146.381,290.67l132.782-132.782l60.104,60.104L206.485,350.774L146.381,290.67z" fill="#FFFFFF"/>
</g>
<g>
</g>
<g>
</g>
<g>
</g>
<g>
</g>
<g>
</g>
<g>
</g>
<g>
</g>
<g>
</g>
<g>
</g>
<g>
</g>
<g>
</g>
<g>
</g>
<g>
</g>
<g>
</g>
<g>
</g>
</svg>
